Predict House Prices - Iowa
…
ames_train %>% 
  group_by(Neighborhood) %>%
  summarise(Min=min(price, na.rm=TRUE),
            Max=max(price, na.rm=TRUE),
            Median=median(price, na.rm=TRUE),
            Mean=mean(price, na.rm=TRUE),
            IQR=IQR(price, na.rm=TRUE),
            Range= Max-Min) %>%
  arrange(desc(Median))

## # A tibble: 27 x 7
##    Neighborhood    Min    Max Median    Mean     IQR  Range
##    <fct>         <dbl>  <dbl>  <dbl>   <dbl>   <dbl>  <dbl>
##  1 NridgHt      173000 615000 305500 314239. 177812. 442000
##  2 NoRidge      235000 405000 290000 295845.  50312. 170000
##  3 GrnHill      230000 330000 280000 280000   50000  100000
##  4 StoneBr      180000 538000 255500 277292. 116875  358000
##  5 Timber       176000 425000 232500 264338. 120000  249000
##  6 Somerst      139000 468000 220000 226040.  77500  329000
##  7 Veenker      181500 385000 217500 242944.  68000  203500
##  8 Greens       155000 214000 212625 198562.  16438.  59000
##  9 Crawfor       96500 381000 198000 197296   76100  284500
## 10 CollgCr      110000 318000 195000 191878.  58500  208000
## #  with 17 more rows
…
